P3/nivel 1/nivel 2/Entrada de timer e controle/Nível 3/divisor frequência 100/divisor frequência 100/tb_div_freq_100.vcd
$date
	Sun Sep 24 02:02:29 2023
$end
$version
	Icarus Verilog
$end
$timescale
	1ns
$end
$scope module tb_div_freq_100 $end
$var wire 1 ! clk_1Hz_tb $end
$var reg 1 " clk $end
$scope module DUT $end
$var wire 1 " clk $end
$var reg 6 # Q [5:0] $end
$var reg 1 ! clk_1Hz $end
$upscope $end
$upscope $end
$enddefinitions $end
$comment Show the parameter values. $end
$dumpall
$end
#0
$dumpvars
b0 #
0"
0!
$end
#5000000
b1 #
1"
#10000000
0"
#15000000
b10 #
1"
#20000000
0"
#25000000
b11 #
1"
#30000000
0"
#35000000
b100 #
1"
#40000000
0"
#45000000
b101 #
1"
#50000000
0"
#55000000
b110 #
1"
#60000000
0"
#65000000
b111 #
1"
#70000000
0"
#75000000
b1000 #
1"
#80000000
0"
#85000000
b1001 #
1"
#90000000
0"
#95000000
b1010 #
1"
#100000000
0"
#105000000
b1011 #
1"
#110000000
0"
#115000000
b1100 #
1"
#120000000
0"
#125000000
b1101 #
1"
#130000000
0"
#135000000
b1110 #
1"
#140000000
0"
#145000000
b1111 #
1"
#150000000
0"
#155000000
b10000 #
1"
#160000000
0"
#165000000
b10001 #
1"
#170000000
0"
#175000000
b10010 #
1"
#180000000
0"
#185000000
b10011 #
1"
#190000000
0"
#195000000
b10100 #
1"
#200000000
0"
#205000000
b10101 #
1"
#210000000
0"
#215000000
b10110 #
1"
#220000000
0"
#225000000
b10111 #
1"
#230000000
0"
#235000000
b11000 #
1"
#240000000
0"
#245000000
b11001 #
1"
#250000000
0"
#255000000
b11010 #
1"
#260000000
0"
#265000000
b11011 #
1"
#270000000
0"
#275000000
b11100 #
1"
#280000000
0"
#285000000
b11101 #
1"
#290000000
0"
#295000000
b11110 #
1"
#300000000
0"
#305000000
b11111 #
1"
#310000000
0"
#315000000
b100000 #
1"
#320000000
0"
#325000000
b100001 #
1"
#330000000
0"
#335000000
b100010 #
1"
#340000000
0"
#345000000
b100011 #
1"
#350000000
0"
#355000000
b100100 #
1"
#360000000
0"
#365000000
b100101 #
1"
#370000000
0"
#375000000
b100110 #
1"
#380000000
0"
#385000000
b100111 #
1"
#390000000
0"
#395000000
b101000 #
1"
#400000000
0"
#405000000
b101001 #
1"
#410000000
0"
#415000000
b101010 #
1"
#420000000
0"
#425000000
b101011 #
1"
#430000000
0"
#435000000
b101100 #
1"
#440000000
0"
#445000000
b101101 #
1"
#450000000
0"
#455000000
b101110 #
1"
#460000000
0"
#465000000
b101111 #
1"
#470000000
0"
#475000000
b110000 #
1"
#480000000
0"
#485000000
b110001 #
1"
#490000000
0"
#495000000
b0 #
1!
1"
#500000000
0"
#505000000
b1 #
1"
#510000000
0"
#515000000
b10 #
1"
#520000000
0"
#525000000
b11 #
1"
#530000000
0"
#535000000
b100 #
1"
#540000000
0"
#545000000
b101 #
1"
#550000000
0"
#555000000
b110 #
1"
#560000000
0"
#565000000
b111 #
1"
#570000000
0"
#575000000
b1000 #
1"
#580000000
0"
#585000000
b1001 #
1"
#590000000
0"
#595000000
b1010 #
1"
#600000000
0"
#605000000
b1011 #
1"
#610000000
0"
#615000000
b1100 #
1"
#620000000
0"
#625000000
b1101 #
1"
#630000000
0"
#635000000
b1110 #
1"
#640000000
0"
#645000000
b1111 #
1"
#650000000
0"
#655000000
b10000 #
1"
#660000000
0"
#665000000
b10001 #
1"
#670000000
0"
#675000000
b10010 #
1"
#680000000
0"
#685000000
b10011 #
1"
#690000000
0"
#695000000
b10100 #
1"
#700000000
0"
#705000000
b10101 #
1"
#710000000
0"
#715000000
b10110 #
1"
#720000000
0"
#725000000
b10111 #
1"
#730000000
0"
#735000000
b11000 #
1"
#740000000
0"
#745000000
b11001 #
1"
#750000000
0"
#755000000
b11010 #
1"
#760000000
0"
#765000000
b11011 #
1"
#770000000
0"
#775000000
b11100 #
1"
#780000000
0"
#785000000
b11101 #
1"
#790000000
0"
#795000000
b11110 #
1"
#800000000
0"
#805000000
b11111 #
1"
#810000000
0"
#815000000
b100000 #
1"
#820000000
0"
#825000000
b100001 #
1"
#830000000
0"
#835000000
b100010 #
1"
#840000000
0"
#845000000
b100011 #
1"
#850000000
0"
#855000000
b100100 #
1"
#860000000
0"
#865000000
b100101 #
1"
#870000000
0"
#875000000
b100110 #
1"
#880000000
0"
#885000000
b100111 #
1"
#890000000
0"
#895000000
b101000 #
1"
#900000000
0"
#905000000
b101001 #
1"
#910000000
0"
#915000000
b101010 #
1"
#920000000
0"
#925000000
b101011 #
1"
#930000000
0"
#935000000
b101100 #
1"
#940000000
0"
#945000000
b101101 #
1"
#950000000
0"
#955000000
b101110 #
1"
#960000000
0"
#965000000
b101111 #
1"
#970000000
0"
#975000000
b110000 #
1"
#980000000
0"
#985000000
b110001 #
1"
#990000000
0"
#995000000
b0 #
0!
1"
